{
"users": [
	{
		"id" : 2,
		"name" : "dr. Deny Sutrisna, S.Ked",
		"email" : "deny@admin.com",
		"email_verified_at" : null,
		"password" : "$2y$10$UKF.861a68a2Y7eNIvR12.cch8IYMsxtm3alEa6ck9RMPf8YYK\/6m",
		"remember_token" : null,
		"created_at" : null,
		"updated_at" : "2021-03-22 20:13:38",
		"deleted_at" : null
	},
	{
		"id" : 3,
		"name" : "Dr.dr. H. Artha Budi Susila Duarsa, M.Kes",
		"email" : "artha@admin.com",
		"email_verified_at" : null,
		"password" : "$2y$10$VPmzrwk3JmUK9MPYEgz49u5gInjWgbm.\/hsVpjUvKk1wzblYPXiyy",
		"remember_token" : null,
		"created_at" : null,
		"updated_at" : "2021-03-22 22:13:13",
		"deleted_at" : null
	},
	{
		"id" : 4,
		"name" : "dr. Dasti Anditiarina, Sp.KP",
		"email" : "dasti@admin.com",
		"email_verified_at" : null,
		"password" : "$2y$10$ym6fbkefpGXjcDP2H2PEJuHo1bmceGX\/qS6jQnihU4CaeujDydpRa",
		"remember_token" : null,
		"created_at" : "2021-03-22 22:13:54",
		"updated_at" : "2021-03-22 22:13:54",
		"deleted_at" : null
	},
	{
		"id" : 5,
		"name" : "drg. Dwi Arianto, Sp.KGA.",
		"email" : "arianto@admin.com",
		"email_verified_at" : null,
		"password" : "$2y$10$p0s687PjpsZ7h\/zd30.vBOktbkE0CSaC.diY3bXhcK.KtKI3bq4ki",
		"remember_token" : null,
		"created_at" : "2021-03-22 22:15:30",
		"updated_at" : "2021-03-22 22:15:30",
		"deleted_at" : null
	},
	{
		"id" : 6,
		"name" : "Ayu Anulus, SST., MKM.",
		"email" : "ayu@admin.com",
		"email_verified_at" : null,
		"password" : "$2y$10$SLE5Gtr3fygPV8Fl.ObLQehSZ8lUmRL9NnYd9SPMDApCgjEwfIXa.",
		"remember_token" : null,
		"created_at" : "2021-03-22 22:16:02",
		"updated_at" : "2021-03-22 22:16:02",
		"deleted_at" : null
	},
	{
		"id" : 7,
		"name" : "dr. Risky Irawan Putra Priono, Sp.P., MARS.",
		"email" : "risky@admin.com",
		"email_verified_at" : null,
		"password" : "$2y$10$HrT0F\/AuYfTPYD8HnBjTwOKUsfISn1B5bKUzaSOpD2dhdtJZUDjuy",
		"remember_token" : null,
		"created_at" : "2021-03-22 22:16:35",
		"updated_at" : "2021-05-25 03:39:40",
		"deleted_at" : null
	},
	{
		"id" : 8,
		"name" : "dr. Irawanto Rochadi Bimasakti, Sp. F",
		"email" : "irawanto@admin.com",
		"email_verified_at" : null,
		"password" : "$2y$10$nOKKdJ5F4jE6rLrNzruOb.K\/pZxmV.Ec7XVByhrNGPZXTvTi8waK6",
		"remember_token" : null,
		"created_at" : "2021-03-22 22:17:58",
		"updated_at" : "2021-03-22 22:17:58",
		"deleted_at" : null
	},
	{
		"id" : 9,
		"name" : "dr. Angelica Vanini W.T, Sp.KK.",
		"email" : "angelica@admin.com",
		"email_verified_at" : null,
		"password" : "$2y$10$3PXY3HcTBgBU8GY9tO312.hbNK5hH8kFLwlX0xPcViMl1klZk5Cuq",
		"remember_token" : null,
		"created_at" : "2021-03-22 22:18:32",
		"updated_at" : "2021-03-22 22:18:32",
		"deleted_at" : null
	},
	{
		"id" : 10,
		"name" : "dr. Aditarahma Imaningdyah, Sp.PK",
		"email" : "aditarahma@admin.com",
		"email_verified_at" : null,
		"password" : "$2y$10$QcLPIflCtjZkM.TvOuPpvOjTzCGnUKl..ZMJeSjRZCsAU3dbwuMs.",
		"remember_token" : null,
		"created_at" : "2021-03-22 22:19:03",
		"updated_at" : "2021-03-22 22:19:03",
		"deleted_at" : null
	},
	{
		"id" : 11,
		"name" : "Dewi Utary, SKM, M.M",
		"email" : "dewi@admin.com",
		"email_verified_at" : null,
		"password" : "$2y$10$1Q8a1EPNkwDkNTfjmq.rDO92yEAI0q3.jqdpUFMI0ao8AFN\/Z.jg2",
		"remember_token" : null,
		"created_at" : "2021-03-22 22:19:34",
		"updated_at" : "2021-03-22 22:19:34",
		"deleted_at" : null
	},
	{
		"id" : 12,
		"name" : "Dany Karmila, SKM, M.Kes",
		"email" : "karmila@admin.com",
		"email_verified_at" : null,
		"password" : "$2y$10$YOCztjOTIBt1ZyL0Q1eYA.pSASlqycnOODUoRF8qEBFhtc5kszLPi",
		"remember_token" : null,
		"created_at" : "2021-03-22 22:20:11",
		"updated_at" : "2021-03-22 22:20:11",
		"deleted_at" : null
	},
	{
		"id" : 13,
		"name" : "dr. Muhammad Ashhabul Kahfi Mathar, S.Ked",
		"email" : "kahfi@admin.com",
		"email_verified_at" : null,
		"password" : "$2y$10$sGcZm0YzjtEcttlskQr7ee3FD4MGW\/MQ6HrZ3n479SfvwGPsw53eC",
		"remember_token" : null,
		"created_at" : "2021-03-22 22:20:39",
		"updated_at" : "2021-09-07 01:32:25",
		"deleted_at" : null
	},
	{
		"id" : 14,
		"name" : "dr. Aulia Mahdaniyati, S.Ked",
		"email" : "aulia@admin.com",
		"email_verified_at" : null,
		"password" : "$2y$10$J9ZzMRrXCsx\/Oo47ZCSmK.W12UgdC8k8rHCLbe41Fk\/K32cx3OdMC",
		"remember_token" : null,
		"created_at" : "2021-03-22 22:21:05",
		"updated_at" : "2021-09-07 01:30:32",
		"deleted_at" : null
	},
	{
		"id" : 15,
		"name" : "I Gede Angga Adnyana, S.ST., M. Imun",
		"email" : "angga@admin.com",
		"email_verified_at" : null,
		"password" : "$2y$10$McELA3.GAHzxQ9G385Lw5Oajlsfg8mXo88B0.X0DJIq4FRvA81nja",
		"remember_token" : null,
		"created_at" : "2021-03-22 22:21:31",
		"updated_at" : "2021-04-28 20:46:57",
		"deleted_at" : null
	},
	{
		"id" : 16,
		"name" : "dr. Danang Nur Adiwibawa, Sp.KJ",
		"email" : "danang@admin.com",
		"email_verified_at" : null,
		"password" : "$2y$10$c1mIk\/gqEHhSxhVvLP2NpOhkhFH0AmoSavscJWpko2t9V.OpULdfC",
		"remember_token" : null,
		"created_at" : "2021-03-22 22:22:05",
		"updated_at" : "2021-03-22 22:22:05",
		"deleted_at" : null
	},
	{
		"id" : 17,
		"name" : "dr. Halia Wanadiatri, M.Si",
		"email" : "halia@admin.com",
		"email_verified_at" : null,
		"password" : "$2y$10$OKP66HkzZE.FF.Znxy0oae6ZLktXLRsyg5vvjwDWrFr4lxzlZ98oC",
		"remember_token" : null,
		"created_at" : "2021-03-22 22:22:32",
		"updated_at" : "2022-03-15 01:45:01",
		"deleted_at" : null
	},
	{
		"id" : 18,
		"name" : "Sabariah, M.Biomed",
		"email" : "sabariah@admin.com",
		"email_verified_at" : null,
		"password" : "$2y$10$OE43ZpXl83VygCIQ.yWhgew4zzGVgCbqfyjhqwjRNCOfbrdIIeyyy",
		"remember_token" : null,
		"created_at" : "2021-03-22 22:22:58",
		"updated_at" : "2021-03-22 22:22:58",
		"deleted_at" : null
	},
	{
		"id" : 19,
		"name" : "dr. H. I Putu Diatmika, M.Biomed, Sp.KJ",
		"email" : "diatmika@admin.com",
		"email_verified_at" : null,
		"password" : "$2y$10$4Q4FcmIlu76iY5lCaLjK7.lAVjAMiS7eRf7m1R9x9VN6NqvisITaS",
		"remember_token" : null,
		"created_at" : "2021-03-22 22:23:24",
		"updated_at" : "2021-11-29 05:18:40",
		"deleted_at" : null
	},
	{
		"id" : 20,
		"name" : "dr. Cheryl Nini",
		"email" : "cheryl@admin.com",
		"email_verified_at" : null,
		"password" : "$2y$10$154O.cwD5Pt6ywVBD0SQu.3c17i5SPXrNkF8fUNckPotfF9xT.6ZW",
		"remember_token" : null,
		"created_at" : "2021-03-22 22:23:50",
		"updated_at" : "2021-03-22 22:23:50",
		"deleted_at" : null
	},
	{
		"id" : 21,
		"name" : "dr. Fahriana Azmi, M.Biomed.",
		"email" : "fahriana@admin.com",
		"email_verified_at" : null,
		"password" : "$2y$10$zOU7DQyy1HwtKh4vLWgNsee2L0CQrKUOvN9H\/YsgVtRbIqlLJW36u",
		"remember_token" : null,
		"created_at" : "2021-03-22 22:24:18",
		"updated_at" : "2021-03-22 22:24:18",
		"deleted_at" : null
	},
	{
		"id" : 22,
		"name" : "dr. Irsandi Rizki Farmananda, S.Ked.",
		"email" : "irsandi@admin.com",
		"email_verified_at" : null,
		"password" : "$2y$10$ZOiXpGM6a8a4M4HKdgY.EOoc0\/NVfLcFrtH5nd1qcgG.3OFRpO\/N2",
		"remember_token" : null,
		"created_at" : "2021-03-22 22:24:44",
		"updated_at" : "2021-03-22 22:24:44",
		"deleted_at" : null
	},
	{
		"id" : 23,
		"name" : "dr. Ida Ayu Made Mahayani, S.Ked",
		"email" : "mahayani@admin.com",
		"email_verified_at" : null,
		"password" : "$2y$10$Rre0936XGzAE3Mn.YSZYjOXU1pTUjFFkyp0JeMltPNOdLbUiVeOiS",
		"remember_token" : null,
		"created_at" : "2021-03-22 22:25:13",
		"updated_at" : "2021-09-07 01:31:57",
		"deleted_at" : null
	},
	{
		"id" : 24,
		"name" : "dr. Ananta Fittonia Benvenuto, Sp.A. M.Sc.",
		"email" : "ananta@admin.com",
		"email_verified_at" : null,
		"password" : "$2y$10$M7Eyw3PgN6DeplHjhgh3BuJBUOAhbxq\/HQpHwo5bou9uhACOLytfi",
		"remember_token" : null,
		"created_at" : "2021-03-22 22:25:46",
		"updated_at" : "2021-03-22 22:25:46",
		"deleted_at" : null
	},
	{
		"id" : 25,
		"name" : "dr. Kadek Dwi Pramana, Sp. PD., M. Biomed",
		"email" : "dwi@admin.com",
		"email_verified_at" : null,
		"password" : "$2y$10$4bJfIip0VahYcBO6foXdluF8mYu0mitzXVzbmIiCLo5DrHZ62.y8K",
		"remember_token" : null,
		"created_at" : "2021-03-22 22:26:16",
		"updated_at" : "2021-03-22 22:26:16",
		"deleted_at" : null
	},
	{
		"id" : 26,
		"name" : "dr. Dian Rahadianti, M.Biomed",
		"email" : "dian@admin.com",
		"email_verified_at" : null,
		"password" : "$2y$10$m5lsOQHaiPEDKcBcwwh3IOWs2GowyOc8\/1i9QERTibUnTaRGRZRgq",
		"remember_token" : null,
		"created_at" : "2021-03-22 22:26:41",
		"updated_at" : "2021-03-22 22:26:41",
		"deleted_at" : null
	},
	{
		"id" : 27,
		"name" : "Irwan Syuhada, S.Psi, M.Si",
		"email" : "irwan@admin.com",
		"email_verified_at" : null,
		"password" : "$2y$10$9NGM\/eP7nus7wTKTmIIo..7EhXD5UlWz0zFf7qhnUJgrNt55e1vh2",
		"remember_token" : null,
		"created_at" : "2021-03-22 22:27:07",
		"updated_at" : "2021-03-22 22:27:07",
		"deleted_at" : null
	},
	{
		"id" : 28,
		"name" : "Diani Sri Hidayati, S.Si, M.Si",
		"email" : "diani@admin.com",
		"email_verified_at" : null,
		"password" : "$2y$10$jZOJKmHjKGvdAmqJQxUbDugqAfZGXPTX9FST3GPbNuBSSRFCvxCzy",
		"remember_token" : null,
		"created_at" : "2021-03-22 22:27:33",
		"updated_at" : "2021-03-22 22:27:33",
		"deleted_at" : null
	},
	{
		"id" : 29,
		"name" : "dr. Fauzy Ma’ruf, Sp. Rad.",
		"email" : "fauzy@admin.com",
		"email_verified_at" : null,
		"password" : "$2y$10$o2iB9YD5vvmDY6UuHTlr1OAyrY2vvMgZTt8t0qwJZPNbcKdVEHqEy",
		"remember_token" : null,
		"created_at" : "2021-03-22 22:28:04",
		"updated_at" : "2021-03-22 22:28:04",
		"deleted_at" : null
	},
	{
		"id" : 30,
		"name" : "Aena Mardiah, S.KM, M.PH",
		"email" : "aena@admin.com",
		"email_verified_at" : null,
		"password" : "$2y$10$DMmSI9BUNPmqgUwLJWfW2emng.UG44wxfk2AjQk452Ob82YzAiMeS",
		"remember_token" : null,
		"created_at" : "2021-03-22 22:28:29",
		"updated_at" : "2021-03-22 22:28:29",
		"deleted_at" : null
	},
	{
		"id" : 31,
		"name" : "Rusmiatik, S.Si, M. Biomed",
		"email" : "rusmiatik@admin.com",
		"email_verified_at" : null,
		"password" : "$2y$10$TceorHs2AWT6ukgdBouTo.6nregPcQSVwoqYice6Yh8qCHREGYhmK",
		"remember_token" : null,
		"created_at" : "2021-03-22 22:28:54",
		"updated_at" : "2021-09-30 02:53:11",
		"deleted_at" : null
	},
	{
		"id" : 32,
		"name" : "Musyarrafah, S.Si, M.Sc",
		"email" : "musyarrafah@admin.com",
		"email_verified_at" : null,
		"password" : "$2y$10$Uh548rLVxVg5DuBwRw9gq.A6Gen3NTULeg3BpgefKi5HPqlCJtFh6",
		"remember_token" : null,
		"created_at" : "2021-03-22 22:29:19",
		"updated_at" : "2021-05-28 12:58:51",
		"deleted_at" : null
	},
	{
		"id" : 33,
		"name" : "Ana Andriana, S.Si, M.Sc",
		"email" : "ana@admin.com",
		"email_verified_at" : null,
		"password" : "$2y$10$59IBJTrVDV6oYsGuGrnBzu6VrtFhS1gJNtzBy99xyfXTjB5fCuDpG",
		"remember_token" : null,
		"created_at" : "2021-03-22 22:32:12",
		"updated_at" : "2021-05-25 03:36:29",
		"deleted_at" : null
	},
	{
		"id" : 34,
		"name" : "Siti Ruqayyah, S.Si, M.Sc",
		"email" : "siti@admin.com",
		"email_verified_at" : null,
		"password" : "$2y$10$VW\/sVuPRQxGECJ3\/U6fg\/.z6ILwp6u5MfVIiBtfACrTmyHBsKOTs2",
		"remember_token" : null,
		"created_at" : "2021-03-22 22:32:39",
		"updated_at" : "2021-03-22 22:32:39",
		"deleted_at" : null
	},
	{
		"id" : 35,
		"name" : "dr. Ronanarasafa, S.Ked",
		"email" : "rona@admin.com",
		"email_verified_at" : null,
		"password" : "$2y$10$52dvn6Gwqy1EA.yjlPCSiuHKEn\/ySoLOGBTghJSpOe.dQbhOIJUta",
		"remember_token" : null,
		"created_at" : "2021-03-22 22:33:07",
		"updated_at" : "2021-09-07 01:34:19",
		"deleted_at" : null
	},
	{
		"id" : 36,
		"name" : "dr. Sukandriani Utami, S.Ked",
		"email" : "sukandriani@admin.com",
		"email_verified_at" : null,
		"password" : "$2y$10$SNe5.RgLC5g\/Z4XBZiDJF.\/fquxOgfLr75qZ0h8QDrWeQO2xhtxTa",
		"remember_token" : null,
		"created_at" : "2021-03-22 22:33:30",
		"updated_at" : "2021-09-29 02:07:12",
		"deleted_at" : null
	},
	{
		"id" : 37,
		"name" : "dr. Nisia Putri Rinayu, S.Ked",
		"email" : "nisia@admin.com",
		"email_verified_at" : null,
		"password" : "$2y$10$HLCLiMAbOIoSUZNLeaVudOhC1GyfuN0x0luDMknjYmn41MBBIDP9G",
		"remember_token" : null,
		"created_at" : "2021-03-22 22:34:02",
		"updated_at" : "2021-09-07 01:32:57",
		"deleted_at" : null
	},
	{
		"id" : 38,
		"name" : "dr. Pebrian Jauhari, Sp.U.",
		"email" : "pebrian@admin.com",
		"email_verified_at" : null,
		"password" : "$2y$10$xTdxjFFX1PWrw6U93n.LjehE7ajChRmiuPqmuMvLfkgp6gnfIiVj.",
		"remember_token" : null,
		"created_at" : "2021-03-22 22:34:38",
		"updated_at" : "2021-03-22 22:34:38",
		"deleted_at" : null
	},
	{
		"id" : 39,
		"name" : "dr. Rizki Mulianti, S.Ked",
		"email" : "mulianti@admin.com",
		"email_verified_at" : null,
		"password" : "$2y$10$yfTf\/pb6y.nx3G2JO\/8.hugjKSM0JAS0XAIq8A\/\/usBn7URSCwxk2",
		"remember_token" : null,
		"created_at" : "2021-03-22 22:35:05",
		"updated_at" : "2021-09-07 01:34:05",
		"deleted_at" : null
	},
	{
		"id" : 43,
		"name" : "dr. Deny Sutrisna Wiatma, S.Ked",
		"email" : "denysutrisna@admin.com",
		"email_verified_at" : null,
		"password" : "$2y$10$rCIwRiKz7fyg67EDoy7.7uVCfUIyp96OQkbFfymfNDSkyEeqfXEM2",
		"remember_token" : null,
		"created_at" : "2021-03-22 22:37:45",
		"updated_at" : "2021-09-07 01:30:47",
		"deleted_at" : null
	},
	{
		"id" : 44,
		"name" : "dr. Dina Qurraatu'aini, M.H.P.E",
		"email" : "dina@admin.com",
		"email_verified_at" : null,
		"password" : "$2y$10$fRgQIIfu.KXZUjkLOf\/yL.riw7c5LIWcWX15ZCJhzAdD8iCEwm.pS",
		"remember_token" : null,
		"created_at" : "2021-03-22 22:38:13",
		"updated_at" : "2022-03-17 03:24:02",
		"deleted_at" : null
	},
	{
		"id" : 45,
		"name" : "dr. Yolly Dahlia, Sp.KJ",
		"email" : "yolly@admin.com",
		"email_verified_at" : null,
		"password" : "$2y$10$Ci78jfifS6rP56jB78NzUu085TriUXRQbDGPYDSED5zuwGeEhX.4S",
		"remember_token" : null,
		"created_at" : "2021-03-22 22:38:43",
		"updated_at" : "2021-03-22 22:38:43",
		"deleted_at" : null
	},
	{
		"id" : 46,
		"name" : "dr. I G P Winangun, Sp.PD, Finasim",
		"email" : "winangun@admin.com",
		"email_verified_at" : null,
		"password" : "$2y$10$7vSQ\/\/52ZOqv80gzZ2WQauXgL\/ACmU1biGWrNVx6.VnX.kdQ4bI.K",
		"remember_token" : null,
		"created_at" : "2021-03-22 22:39:07",
		"updated_at" : "2021-03-22 22:39:07",
		"deleted_at" : null
	},
	{
		"id" : 47,
		"name" : "dr. Hj. Suci Nirmala, S.Ked",
		"email" : "suci@admin.com",
		"email_verified_at" : null,
		"password" : "$2y$10$Gy1F2610h.RoL0DSnMIZJO7zcF239SXRHeZ\/a8QALdGS4KJaTF1ta",
		"remember_token" : null,
		"created_at" : "2021-03-22 22:39:35",
		"updated_at" : "2021-09-07 01:31:03",
		"deleted_at" : null
	},
	{
		"id" : 48,
		"name" : "dr. I Nyoman Cahyadi Tri S, S.Ked",
		"email" : "cahyadi2setiawan@gmail.com",
		"email_verified_at" : null,
		"password" : "$2y$10$i3DONQUm6i5RKRR1plmc7OHp.zqDAMlqQ.BoPpXGXIT7YqOf6r5ma",
		"remember_token" : null,
		"created_at" : "2021-03-22 22:40:03",
		"updated_at" : "2021-09-07 01:31:18",
		"deleted_at" : null
	},
	{
		"id" : 49,
		"name" : "dr. Pande Tiara Maharani, S.Ked.",
		"email" : "tiara@admin.com",
		"email_verified_at" : null,
		"password" : "$2y$10$o1o3StXEBFXGME1osZfAl.PQe8AeZHl\/yYmIvs0V3LAb\/ogoexbIO",
		"remember_token" : null,
		"created_at" : "2021-03-22 22:40:30",
		"updated_at" : "2021-03-22 22:40:30",
		"deleted_at" : null
	},
	{
		"id" : 50,
		"name" : "I Putu Dedy Arjita, S.Pd, M.Kes",
		"email" : "dedy@admin.com",
		"email_verified_at" : null,
		"password" : "$2y$10$qUHaQCF8lczetOCYI1zxT.EhldQtXstg9qd1e7bjiiaD\/SLH7LvKW",
		"remember_token" : null,
		"created_at" : "2021-03-22 22:40:57",
		"updated_at" : "2021-03-22 22:40:57",
		"deleted_at" : null
	},
	{
		"id" : 51,
		"name" : "dr. Alfian Muhajir, S.Ked",
		"email" : "alfian.muhajir@gmail.com",
		"email_verified_at" : null,
		"password" : "$2y$10$utEWqDA4n40VjgQsqHM.J.sOgJEmmfTQpy\/f5zZe7vJw3ELYRzyxG",
		"remember_token" : null,
		"created_at" : "2021-03-22 22:41:24",
		"updated_at" : "2022-03-15 01:45:16",
		"deleted_at" : null
	},
	{
		"id" : 57,
		"name" : "dr. DOKTER s.ked m.kes",
		"email" : "dokter@admin.com",
		"email_verified_at" : null,
		"password" : "$2y$10$c0r4nVngzVZt6TEFJuNj2eCEN59gH.Fvp4900\/EYFKWbK0Q6GiMNm",
		"remember_token" : null,
		"created_at" : "2021-09-07 01:19:49",
		"updated_at" : "2021-09-07 01:26:06",
		"deleted_at" : null
	},
	{
		"id" : 58,
		"name" : "dr. Lusiana Wahyu Ratna Wijayanti, Sp.KJ",
		"email" : "lusiana@admin.com",
		"email_verified_at" : null,
		"password" : "$2y$10$re8yv8.ge6\/PdgHyd\/Gm1.UUZsphwUqCGd3.NP19htlWDMRLpVUVa",
		"remember_token" : null,
		"created_at" : "2021-09-23 05:10:33",
		"updated_at" : "2021-09-27 00:56:13",
		"deleted_at" : null
	},
	{
		"id" : 59,
		"name" : "dr. Mamang Bagiansah, Sp.PD",
		"email" : "mamang@admin.com",
		"email_verified_at" : null,
		"password" : "$2y$10$L2M\/Lk6k3rDZnsxMR1yYSef.yLPgCIgd1z6Xwj\/CktSYhUiD906sa",
		"remember_token" : null,
		"created_at" : "2021-09-23 05:11:03",
		"updated_at" : "2021-09-29 14:58:23",
		"deleted_at" : null
	},
	{
		"id" : 60,
		"name" : "dr. Rohmania Setiarini, Sp.N",
		"email" : "rahmania@admin.com",
		"email_verified_at" : null,
		"password" : "$2y$10$wWac0v3fgwAL9xFqWCYN\/ebsAniYUTbFjBMfzLFVBu4vTNLI08JDa",
		"remember_token" : null,
		"created_at" : "2021-09-23 05:11:30",
		"updated_at" : "2022-01-15 04:30:42",
		"deleted_at" : null
	},
	{
		"id" : 61,
		"name" : "dr. Velia Maya Samodra, S.Ked",
		"email" : "velia@admin.com",
		"email_verified_at" : null,
		"password" : "$2y$10$BhK0qP6X5eyK5.CP6ph4jujpjhXE4lcv4FMw6F8hGfEFtqJXIqetS",
		"remember_token" : null,
		"created_at" : "2021-09-23 05:11:58",
		"updated_at" : "2021-09-23 05:11:58",
		"deleted_at" : null
	},
	{
		"id" : 62,
		"name" : "dr. Mirzaulin Leonaviri, S.Ked",
		"email" : "mirzaulin@admin.com",
		"email_verified_at" : null,
		"password" : "$2y$10$NOqb0PbDVh2.7f6ivHKuVusD38DoyZ0KOc.aIuBUsaFmGfI2mab9q",
		"remember_token" : null,
		"created_at" : "2021-09-23 05:12:33",
		"updated_at" : "2021-09-27 00:55:58",
		"deleted_at" : null
	},
	{
		"id" : 63,
		"name" : "dr. Sulatun Hidayati, S.Ked",
		"email" : "sulatun@admin.com",
		"email_verified_at" : null,
		"password" : "$2y$10$DexodkuMOEmxg4vX6EklVui\/UYCKp0OZH2F6ZjtGg79XjwrlCZbF2",
		"remember_token" : null,
		"created_at" : "2021-09-23 05:12:58",
		"updated_at" : "2021-09-23 05:12:58",
		"deleted_at" : null
	},
	{
		"id" : 64,
		"name" : "dr. Hardinata, S.Ked",
		"email" : "hardinata@admin.com",
		"email_verified_at" : null,
		"password" : "$2y$10$pNV.rGVGoI8cluC\/mqGUuOkpJ2WUEUSCFWIt6Mo6DgXgwe0f2HP9u",
		"remember_token" : null,
		"created_at" : "2021-09-23 05:13:27",
		"updated_at" : "2021-09-23 05:13:27",
		"deleted_at" : null
	},
	{
		"id" : 65,
		"name" : "dr. Made Rika Anastasia Pratiwi, S.Ked",
		"email" : "rika@admin.com",
		"email_verified_at" : null,
		"password" : "$2y$10$SDATeioU\/5bOlzcBxF50.OUIEJDdENUToPNqlpkZ33Gnls4\/6KV9y",
		"remember_token" : null,
		"created_at" : "2021-09-23 05:13:46",
		"updated_at" : "2021-09-23 05:13:46",
		"deleted_at" : null
	}
]}
